﻿##
## ██████╗  ██████╗ ██╗   ██╗██╗   ██╗ █████╗ ███████╗██████╗ ████████╗                                        ██████╗  ██████╗  ██╗███████╗
##██╔════╝ ██╔═══██╗██║   ██║██║   ██║██╔══██╗██╔════╝██╔══██╗╚══██╔══╝                                        ╚════██╗██╔═████╗███║╚════██║
##██║  ███╗██║   ██║██║   ██║██║   ██║███████║█████╗  ██████╔╝   ██║                                            █████╔╝██║██╔██║╚██║    ██╔╝
##██║   ██║██║   ██║██║   ██║╚██╗ ██╔╝██╔══██║██╔══╝  ██╔══██╗   ██║                                           ██╔═══╝ ████╔╝██║ ██║   ██╔╝ 
##╚██████╔╝╚██████╔╝╚██████╔╝ ╚████╔╝ ██║  ██║███████╗██║  ██║   ██║                                           ███████╗╚██████╔╝ ██║   ██║  
## ╚═════╝  ╚═════╝  ╚═════╝   ╚═══╝  ╚═╝  ╚═╝╚══════╝╚═╝  ╚═╝   ╚═╝                                           ╚══════╝ ╚═════╝  ╚═╝   ╚═╝  
## ██████╗  ██████╗  ██████╗ ███████╗███████╗███████╗███╗   ██╗███████╗                                        ██████╗  ██████╗  ██╗ █████╗ 
##██╔════╝ ██╔═══██╗██╔═══██╗██╔════╝██╔════╝██╔════╝████╗  ██║██╔════╝                                        ╚════██╗██╔═████╗███║██╔══██╗
##██║  ███╗██║   ██║██║   ██║███████╗███████╗█████╗  ██╔██╗ ██║███████╗                                         █████╔╝██║██╔██║╚██║╚█████╔╝
##██║   ██║██║   ██║██║   ██║╚════██║╚════██║██╔══╝  ██║╚██╗██║╚════██║                                        ██╔═══╝ ████╔╝██║ ██║██╔══██╗
##╚██████╔╝╚██████╔╝╚██████╔╝███████║███████║███████╗██║ ╚████║███████║                                        ███████╗╚██████╔╝ ██║╚█████╔╝
## ╚═════╝  ╚═════╝  ╚═════╝ ╚══════╝╚══════╝╚══════╝╚═╝  ╚═══╝╚══════╝                                        ╚══════╝ ╚═════╝  ╚═╝ ╚════╝ 
##████████╗ ██████╗ ██████╗  ██████╗       ██╗     ██╗███████╗████████╗                                         █████╗ ██████╗  ██╗         
##╚══██╔══╝██╔═══██╗██╔══██╗██╔═══██╗      ██║     ██║██╔════╝╚══██╔══╝                                        ██╔══██╗██╔══██╗███║         
##   ██║   ██║   ██║██║  ██║██║   ██║█████╗██║     ██║███████╗   ██║                                           ███████║██████╔╝╚██║         
##   ██║   ██║   ██║██║  ██║██║   ██║╚════╝██║     ██║╚════██║   ██║                                           ██╔══██║██╔═══╝  ██║         
##   ██║   ╚██████╔╝██████╔╝╚██████╔╝      ███████╗██║███████║   ██║                                           ██║  ██║██║      ██║         
##   ╚═╝    ╚═════╝ ╚═════╝  ╚═════╝       ╚══════╝╚═╝╚══════╝   ╚═╝                                           ╚═╝  ╚═╝╚═╝      ╚═╝         
##  

###

Journal - 2 

- 21/03/2018